{
  // Name your instance!
  "title": "Etherpad",

  // favicon default name
  // alternatively, set up a fully specified Url to your own favicon
  "favicon": "favicon.ico",

  //IP and port which etherpad should bind at
  "ip": "0.0.0.0",
  "port" : 9001,

  "dbType" : "dirty",
  "dbSettings" : {
                   "filename" : "var/dirty.db"
                 },

  "defaultPadText" : "Welcome to Etherpad!\n\nThis pad text is synchronized as you type, so that everyone viewing this page sees the same text. This allows you to collaborate seamlessly on documents!\n\nGet involved with Etherpad at http:\/\/etherpad.org\n",

  "padOptions": {
    "noColors": false,
    "showControls": true,
    "showChat": true,
    "showLineNumbers": true,
    "useMonospaceFont": false,
    "userName": false,
    "userColor": false,
    "rtl": false,
    "alwaysShowChat": false,
    "chatAndUsers": false,
    "lang": "en-gb"
  },

  "suppressErrorsInPadText" : false,
  "requireSession" : false,
  "editOnly" : false,
  "sessionNoPassword" : false,
  "minify" : true,
  "maxAge" : 21600,
  "abiword" : null,
  "soffice" : null,
  "tidyHtml" : null,
  "allowUnknownFileEnds" : true,
  "requireAuthentication" : false,
  "requireAuthorization" : false,
  "trustProxy" : false,
  "disableIPlogging" : false,

  "socketTransportProtocols" : ["xhr-polling", "jsonp-polling", "htmlfile"],
  "loadTest": false,

  "loglevel": "INFO",

  "logconfig" :
    {
      "appenders": [
        {
          "type": "console"
        }
      ]
    }
}
